<?xml version="1.0" encoding="UTF-8" standalone="no"?>
<!-- Created with Inkscape (http://www.inkscape.org/) -->

<svg
   width="16"
   height="32"
   viewBox="0 0 4.2333332 8.4666666"
   version="1.1"
   id="svg5"
   sodipodi:docname="file.svg"
   inkscape:version="1.2.1 (9c6d41e410, 2022-07-14, custom)"
   inkscape:export-filename="biblio.svg"
   inkscape:export-xdpi="300"
   inkscape:export-ydpi="300"
   xmlns:inkscape="http://www.inkscape.org/namespaces/inkscape"
   xmlns:sodipodi="http://sodipodi.sourceforge.net/DTD/sodipodi-0.dtd"
   xmlns="http://www.w3.org/2000/svg"
   xmlns:svg="http://www.w3.org/2000/svg">
  <sodipodi:namedview
     id="namedview7"
     pagecolor="#ffffff"
     bordercolor="#666666"
     borderopacity="1.0"
     inkscape:showpageshadow="2"
     inkscape:pageopacity="0.0"
     inkscape:pagecheckerboard="0"
     inkscape:deskcolor="#d1d1d1"
     inkscape:document-units="mm"
     showgrid="true"
     inkscape:zoom="11.683875"
     inkscape:cx="-4.4077843"
     inkscape:cy="25.120091"
     inkscape:window-width="1920"
     inkscape:window-height="1080"
     inkscape:window-x="0"
     inkscape:window-y="0"
     inkscape:window-maximized="1"
     inkscape:current-layer="layer1">
    <inkscape:grid
       snapvisiblegridlinesonly="true"
       type="xygrid"
       id="grid1049"
       empspacing="4"
       originx="0"
       originy="0" />
  </sodipodi:namedview>
  <defs
     id="defs2">
    <inkscape:path-effect
       effect="bspline"
       id="path-effect21026"
       is_visible="true"
       lpeversion="1"
       weight="33.333333"
       steps="2"
       helper_size="0"
       apply_no_weight="true"
       apply_with_weight="true"
       only_selected="false" />
    <inkscape:path-effect
       effect="bspline"
       id="path-effect21026-3"
       is_visible="true"
       lpeversion="1"
       weight="33.333333"
       steps="2"
       helper_size="0"
       apply_no_weight="true"
       apply_with_weight="true"
       only_selected="false" />
    <inkscape:path-effect
       effect="bspline"
       id="path-effect21798"
       is_visible="true"
       lpeversion="1"
       weight="33.333333"
       steps="2"
       helper_size="0"
       apply_no_weight="true"
       apply_with_weight="true"
       only_selected="false" />
    <inkscape:path-effect
       effect="bspline"
       id="path-effect21806"
       is_visible="true"
       lpeversion="1"
       weight="33.333333"
       steps="2"
       helper_size="0"
       apply_no_weight="true"
       apply_with_weight="true"
       only_selected="false" />
    <inkscape:path-effect
       effect="bspline"
       id="path-effect21810"
       is_visible="true"
       lpeversion="1"
       weight="33.333333"
       steps="2"
       helper_size="0"
       apply_no_weight="true"
       apply_with_weight="true"
       only_selected="false" />
  </defs>
  <g
     inkscape:label="Layer 1"
     inkscape:groupmode="layer"
     id="layer1">
    <path
       style="fill:none;stroke:#000000;stroke-width:0.264583;stroke-linecap:butt;stroke-linejoin:miter;stroke-dasharray:none;stroke-opacity:1"
       d="M 0.39687483,1.6205727 H 2.1400121 L 3.8831495,3.3637103 V 6.8499848 H 0.39687483 Z"
       id="path20766"
       sodipodi:nodetypes="cccccc" />
    <path
       style="fill:none;stroke:#000000;stroke-width:0.264583;stroke-linecap:butt;stroke-linejoin:miter;stroke-dasharray:none;stroke-opacity:1"
       d="M 2.1400121,1.6205727 V 3.3637103 H 3.8831495"
       id="path20768" />
    <path
       style="fill:none;stroke:#000000;stroke-width:0.264583px;stroke-linecap:butt;stroke-linejoin:miter;stroke-opacity:1"
       d="m 10.054167,12.7 h 3.175 v 4.233333 h -3.175 z"
       id="path20770"
       sodipodi:nodetypes="ccccc" />
    <path
       style="fill:none;stroke:#000000;stroke-width:0.264583px;stroke-linecap:butt;stroke-linejoin:miter;stroke-opacity:1"
       d="M 11.641667,14.816666 V 10.583333"
       id="path20772" />
    <path
       style="fill:none;stroke:#000000;stroke-width:0.264583px;stroke-linecap:butt;stroke-linejoin:miter;stroke-opacity:1"
       d="M 10.583333,11.641667 11.641667,10.583333 12.7,11.641667"
       id="path20774" />
    <path
       style="fill:none;stroke:#000000;stroke-width:0.264583px;stroke-linecap:butt;stroke-linejoin:miter;stroke-opacity:1"
       d="m 21.166667,10.583333 v 6.35 H 25.4 v -6.35 z"
       id="path20892" />
    <path
       style="fill:none;stroke:#000000;stroke-width:0.264583px;stroke-linecap:butt;stroke-linejoin:miter;stroke-opacity:1"
       d="m 27.516667,10.583333 v 6.35 H 31.75 v -6.35 z"
       id="path20892-7" />
    <path
       style="fill:none;stroke:#000000;stroke-width:0.264583px;stroke-linecap:butt;stroke-linejoin:miter;stroke-opacity:1"
       d="m 31.75,13.229167 c -0.199172,-0.251141 -0.398454,-0.502423 -0.630557,-0.451593 -0.232102,0.05083 -0.49668,0.403601 -0.802575,0.31927 -0.305895,-0.08433 -0.663981,-0.621459 -0.975178,-0.661427 -0.311196,-0.03997 -0.570974,0.392995 -0.775952,0.607018 -0.204977,0.214023 -0.358926,0.20068 -0.531588,0.147618 -0.172661,-0.05306 -0.341097,-0.137281 -0.517483,-0.225474"
       id="path21796"
       inkscape:path-effect="#path-effect21798"
       inkscape:original-d="m 31.75,13.229167 c -0.199138,-0.251168 -0.398421,-0.502449 -0.597848,-0.753844 -0.264853,0.35305 -0.529431,0.70582 -0.79375,1.058334 -0.321052,-0.538728 -0.70582,-1.058069 -1.058333,-1.5875 -0.294937,0.434075 -0.529042,0.882442 -0.79375,1.322916 -0.145579,-0.01237 -0.299528,-0.02572 -0.460486,-0.03991 -0.184395,-0.09207 -0.352833,-0.176285 -0.529166,-0.264584"
       sodipodi:nodetypes="ccccccc" />
    <path
       style="fill:none;stroke:#000000;stroke-width:0.264583px;stroke-linecap:butt;stroke-linejoin:miter;stroke-opacity:1"
       d="m 27.516666,14.2875 c 0.250506,-0.250506 0.529167,-0.529167 0.842557,-0.525635 0.31339,0.0035 0.657045,0.261274 0.920777,0.262218 0.263732,9.43e-4 0.441487,-0.265689 0.73916,-0.272335 0.297674,-0.0066 0.761012,0.271355 1.069671,0.403554 C 31.39749,14.2875 31.573875,14.2875 31.75,14.2875"
       id="path21804"
       inkscape:path-effect="#path-effect21806"
       inkscape:original-d="m 27.516666,14.2875 c 0.225281,-0.275731 0.529432,-0.528902 0.79375,-0.79375 0.354916,0.281355 0.705821,0.529431 1.058334,0.79375 0.220066,-0.232418 0.353042,-0.528902 0.529166,-0.79375 0.402186,0.279238 0.882209,0.529431 1.322917,0.79375 0.176657,2.65e-4 0.353042,2.65e-4 0.529167,0"
       sodipodi:nodetypes="cccccc" />
    <path
       style="fill:none;stroke:#000000;stroke-width:0.264583px;stroke-linecap:butt;stroke-linejoin:miter;stroke-opacity:1"
       d="m 29.36875,14.022916 c 0.441284,0.26477 0.867377,0.520426 0.684979,0.748237 -0.182398,0.227811 -0.949367,0.398248 -0.772922,0.618791 0.176446,0.220543 1.322953,0.485122 1.190607,0.749655 -0.132345,0.264534 -1.543428,0.529112 -2.954747,0.793734"
       id="path21808"
       inkscape:path-effect="#path-effect21810"
       inkscape:original-d="m 29.36875,14.022916 c 0.441237,0.264848 0.86733,0.520504 1.322917,0.793751 -0.820268,0.182605 -1.587237,0.353042 -2.38125,0.529166 1.146791,0.264848 2.293298,0.529426 3.439583,0.79375 -1.410874,0.264853 -2.821957,0.529431 -4.233333,0.79375"
       sodipodi:nodetypes="ccccc" />
    <circle
       style="opacity:0.99;fill:#ffffff;fill-opacity:1;stroke:#000000;stroke-width:0.264583;stroke-dasharray:none;stroke-opacity:1;paint-order:markers fill stroke;stop-color:#000000"
       id="path21816"
       cx="30.691666"
       cy="11.641667"
       r="0.52916664" />
    <circle
       style="opacity:0.99;fill:#ffffff;fill-opacity:1;stroke:#000000;stroke-width:0.264583;stroke-dasharray:none;stroke-opacity:1;paint-order:markers fill stroke;stop-color:#000000"
       id="path21022"
       cx="23.283335"
       cy="12.7"
       r="1.3229166" />
    <path
       style="fill:none;stroke:#000000;stroke-width:0.264583px;stroke-linecap:butt;stroke-linejoin:miter;stroke-opacity:1"
       d="m 21.166667,15.345833 c 0.264537,-0.440895 0.52912,-0.881867 0.874424,-1.102392 0.345304,-0.220525 0.801535,-0.220525 1.242243,-0.220525"
       id="path21024"
       inkscape:path-effect="#path-effect21026"
       inkscape:original-d="m 21.166667,15.345833 c 0.264848,-0.440708 0.529431,-0.88168 0.79375,-1.322917 0.425978,0.01 0.882209,2.65e-4 1.322917,0" />
    <path
       style="fill:none;stroke:#000000;stroke-width:0.264583px;stroke-linecap:butt;stroke-linejoin:miter;stroke-opacity:1"
       d="m 25.400001,15.345834 c -0.264537,-0.440895 -0.52912,-0.881867 -0.874424,-1.102392 -0.345304,-0.220525 -0.801535,-0.220525 -1.242243,-0.220525"
       id="path21024-6"
       inkscape:original-d="m 25.400001,15.345834 c -0.264848,-0.440708 -0.529431,-0.88168 -0.79375,-1.322917 -0.425978,0.01 -0.882209,2.65e-4 -1.322917,0"
       inkscape:path-effect="#path-effect21026-3" />
    <path
       style="fill:none;stroke:#000000;stroke-width:0.79375;stroke-linecap:butt;stroke-linejoin:miter;stroke-dasharray:none;stroke-opacity:1"
       d="M 4.7625,23.8125 6.35,20.108333"
       id="path34576"
       sodipodi:nodetypes="cc" />
    <circle
       style="opacity:0.99;fill:#ffffff;fill-opacity:1;stroke:#000000;stroke-width:0.264583;stroke-dasharray:none;stroke-opacity:1;paint-order:markers fill stroke;stop-color:#000000"
       id="path34572"
       cx="6.3499999"
       cy="20.108334"
       r="1.5875" />
    <path
       id="path20834-6"
       style="color:#000000;fill:#000000"
       d="m 15.610933,10.420036 v 0.132808 4.263823 l 1.191659,2.3828 1.189075,-2.3828 v -4.396631 z m 0.26355,0.265617 h 0.795301 v 3.96875 h -0.795301 z m 1.05885,0 h 0.794784 v 3.96875 h -0.794784 z m -0.976684,4.232299 h 1.689819 l -0.463021,0.926559 h -0.763261 z" />
  </g>
</svg>
